^C:\PROJECTS\VOXEL\DEV\LIBS\OCULUSRIFT\OCULUSSDK\LIBOVR\LIB\WIN32\VS2013\LIBOVRD.LIB|C:\PROJECTS\VOXEL\DEV\LIBS\OCULUSRIFT\OCULUSSHARP\OCULUSSHARP\DEBUG\.NETFRAMEWORK,VERSION=V4.5.1.ASSEMBLYATTRIBUTES.OBJ|C:\PROJECTS\VOXEL\DEV\LIBS\OCULUSRIFT\OCULUSSHARP\OCULUSSHARP\DEBUG\APP.RES|C:\PROJECTS\VOXEL\DEV\LIBS\OCULUSRIFT\OCULUSSHARP\OCULUSSHARP\DEBUG\ASSEMBLYINFO.OBJ|C:\PROJECTS\VOXEL\DEV\LIBS\OCULUSRIFT\OCULUSSHARP\OCULUSSHARP\DEBUG\OCULUSSHARP.OBJ|C:\PROJECTS\VOXEL\DEV\LIBS\OCULUSRIFT\OCULUSSHARP\OCULUSSHARP\DEBUG\STDAFX.OBJ
C:\PROJECTS\VOXEL\DEV\LIBS\OCULUSRIFT\OCULUSSHARP\DEBUG\OCULUSSHARP.DLL
C:\PROJECTS\VOXEL\DEV\LIBS\OCULUSRIFT\OCULUSSHARP\DEBUG\OCULUSSHARP.PDB
